{
  "emisor": {
    "rutemisor": "77940465-K",
    "rznsoc": "CLAVATA SPA",
    "giroemis": "VENTA AL POR MENOR EN COMERCIOS ESPECIAL",
    "acteco": "107100",
    "dirorigen": "RAFAEL CASANOVA 297",
    "cmnaorigen": "SANTA CRUZ",
    "ciudadorigen": "SANTA CRUZ",
    "fchresol": "2016-04-25",
    "nroresol": "0",
    "cdgsiisucur": "1"
  },
  "receptor": {
    "rutrecep": "9375855-2",
    "rznsocrecep": "LUZMIRA CESPEDES NAVARRO",
    "girorecep": "PROVISIONES",
    "dirrecep": "ADRIANO DIAZ 560",
    "cmnarecep": "Santa Cruz",
    "ciudadrecep": "Santa Cruz",
    "rutcaratula": "60803000-K"
  },
  "iddoc": {
    "tipodte": "39",
    "folio": "5",
    "fchemis": "2024-07-10",
	"indservicio":"3",
	"indmntneto":"2"
   
  },
  "totales": {
    "mntneto": "15126",
    "iva": "2874",
    "tasaiva": "19",
    "mnttotal": "18000"
  },
  "detalle": [
    {
      "nrolindet": "1",
      "cdgitem": [
        {
          "tpocodigo": "INT",
          "vlrcodigo": "01001"
        }
      ],
      "unmditem": "UN",
      "nmbitem": "PAN CORRIENTE",
      "qtyitem": 10,
      "prcitem": 1800,
      "descuentopct": 0,
      "descuentomonto": 0,
      "indexe": "0",
      "montoitem": 18000
    }
  ],
  "usuario": {
    "login": "eguenul",
    "rut": "13968481-8",
    "password": "amulen1956"
  }
}